China’s Role in UN Sanctions: Reassessing China’s Adherence to the Liberal International Order with CEC Data
…
Code

resolutions <- 
  fread("CR-UNSC_2024-05-19_ALL_CSV_FULL.csv") |>
  as_tibble() |>
  filter(year %in% c(1972:2024)) |> 
  select(
    year, date, res_no, iso_name, m49_region_sub, topic, subjects, chapter7,
    vote_summary, vote_detail, vote_yes, vote_no, vote_abstention, vote_nonvote
  ) |> 
  rename("names" = iso_name, "subregion" = m49_region_sub)
  
resolutions

# A tibble: 2,415 × 14
    year date       res_no names  subregion topic subjects chapter7 vote_summary
   <int> <IDate>     <int> <chr>  <chr>     <chr> <chr>    <lgl>    <chr>       
 1  1972 1972-01-19    308 Ethio… Sub-Saha… on h… UN. SEC… FALSE    "Voting Sum…
 2  1972 1972-02-04    309 Argen… Eastern … on e… UN. SEC… FALSE    "Voting Sum…
 3  1972 1972-02-04    310 Franc… Northern… on S… UN. Gen… FALSE    "Voting Sum…
 4  1972 1972-02-04    311 Franc… Sub-Saha… on p… POLITIC… FALSE    "Voting Sum…
 5  1972 1972-02-04    312 Angol… Latin Am… on t… NATIONA… FALSE    "Voting Sum…
 6  1972 1972-02-28    313 Israe… Western … on I… ARMED I… FALSE    "Voting Sum…
 7  1972 1972-02-28    314 Unite… Northern… urgi… UN. SEC… TRUE     "Voting Sum…
 8  1972 1972-06-15    315 China… Eastern … on e… UN Peac… FALSE    "Voting Sum…
 9  1972 1972-06-26    316 Israe… Latin Am… on I… MILITAR… FALSE    "Voting Sum…
10  1972 1972-07-21    317 Israe… Western … on S… DETAINE… FALSE    "Voting Sum…
# ℹ 2,405 more rows
# ℹ 5 more variables: vote_detail <chr>, vote_yes <int>, vote_no <int>,
#   vote_abstention <int>, vote_nonvote <int>
…
resolutions_votes

# A tibble: 2,415 × 27
    year date       res_no names     subregion topic subjects chapter7 china_yes
   <int> <IDate>     <int> <chr>     <chr>     <chr> <chr>    <lgl>        <dbl>
 1  1972 1972-01-19    308 Ethiopia… Sub-Saha… on h… UN. SEC… FALSE            1
 2  1972 1972-02-04    309 Argentin… Eastern … on e… UN. SEC… FALSE            0
 3  1972 1972-02-04    310 France|U… Northern… on S… UN. Gen… FALSE            1
 4  1972 1972-02-04    311 France|S… Sub-Saha… on p… POLITIC… FALSE            1
 5  1972 1972-02-04    312 Angola|A… Latin Am… on t… NATIONA… FALSE            1
 6  1972 1972-02-28    313 Israel|L… Western … on I… ARMED I… FALSE            1
 7  1972 1972-02-28    314 United K… Northern… urgi… UN. SEC… TRUE             1
 8  1972 1972-06-15    315 China|Cy… Eastern … on e… UN Peac… FALSE            0
 9  1972 1972-06-26    316 Israel|L… Latin Am… on I… MILITAR… FALSE            1
10  1972 1972-07-21    317 Israel|L… Western … on S… DETAINE… FALSE            1
# ℹ 2,405 more rows
# ℹ 18 more variables: china_no <dbl>, china_ab <dbl>, france_yes <dbl>,
#   france_no <dbl>, france_ab <dbl>, us_yes <dbl>, us_no <dbl>, us_ab <dbl>,
#   uk_yes <dbl>, uk_no <dbl>, uk_ab <dbl>, russia_yes <dbl>, russia_no <dbl>,
#   russia_ab <dbl>, vote_yes <int>, vote_no <int>, vote_abstention <int>,
#   vote_nonvote <int>
…
sanctions_votes

# A tibble: 510 × 22
    year date       res_no draft_no      names topic subjects china_yes china_no
   <int> <IDate>     <int> <chr>         <chr> <chr> <chr>        <dbl>    <dbl>
 1  1972 1972-02-04     NA S/10606       <NA>  Sout… <NA>            NA        0
 2  1972 1972-02-28    314 <NA>          Unit… urgi… UN. SEC…         1        0
 3  1972 1972-08-25     NA S/10771       <NA>  Admi… <NA>            NA        1
 4  1972 1972-09-10     NA S/10784       <NA>  Midd… <NA>            NA        0
 5  1972 1972-09-29     NA S/10805/Rev.… <NA>  Sout… <NA>            NA        0
 6  1972 1972-09-29     NA S/10805/Rev.1 <NA>  Sout… <NA>            NA        0
 7  1972 1972-09-29     NA S/10805/Rev.1 <NA>  Sout… <NA>            NA        0
 8  1973 1973-03-21     NA S/10931/Rev.1 <NA>  Main… <NA>            NA        0
 9  1973 1973-05-22     NA S/10928       <NA>  Sout… <NA>            NA        0
10  1973 1973-07-26     NA S/10974       <NA>  Midd… <NA>            NA        0
# ℹ 500 more rows
# ℹ 13 more variables: china_ab <dbl>, france_yes <dbl>, france_no <dbl>,
#   france_ab <dbl>, us_yes <dbl>, us_no <dbl>, us_ab <dbl>, uk_yes <dbl>,
#   uk_no <dbl>, uk_ab <dbl>, russia_yes <dbl>, russia_no <dbl>,
#   russia_ab <dbl>
…
Rows: 135 Columns: 57
── Column specification ────────────────────────────────────────────────────────
Delimiter: ","
chr  (8): Narrative Link, caseid_name, TIES_code, state2, threatsanct_type, ...
dbl (48): Case ID, TIES, PIIE, GSDB, GSDB_code, ccode_target, sender1, sende...
lgl  (1): PIIE_code

ℹ Use `spec()` to retrieve the full column specification for this data.
ℹ Specify the column types or set `show_col_types = FALSE` to quiet this message.

Code

CMPS

# A tibble: 51 × 9
     caseid caseid_name date       target target_name finaloutcome success link 
      <dbl> <chr>       <IDate>     <dbl> <chr>              <dbl>   <dbl> <chr>
 1  1.99e10 UNSC: FRY … 1991-09-25    345 Yugoslavia            10       0 http…
 2  1.99e11 UNSC: FRY … 1991-09-12    345 Yugoslavia            NA      NA http…
 3  1.99e11 UNSC: Camb… 1992-12-01    811 Cambodia              10       1 http…
 4  1.99e11 UNSC: Libe… 1992-11-19    450 Liberia               10       1 http…
 5  1.99e10 UNSC: Soma… 1992-01-23    520 Somalia                9       0 http…
 6  1.99e10 UNSC: Ango… 1993-09-15    540 Angola                10       1 http…
 7  1.99e10 UNSC: Hait… 1993-08-27     41 Haiti                 10       0 http…
 8  1.99e10 UNSC: Hait… 1993-10-13     41 Haiti                 10       1 http…
 9  1.99e10 UNSC: Rwan… 1994-05-17    517 Rwanda                10       1 http…
10  2.00e10 UNSC: Rwan… 1995-08-16    517 Rwanda                10       1 http…
# ℹ 41 more rows
# ℹ 1 more variable: cmps <dbl>
…
EUSANCT

# A tibble: 33 × 8
       caseid date       target target_name  finaloutcome success link   eusanct
        <dbl> <IDate>     <dbl> <chr>               <dbl>   <dbl> <chr>    <dbl>
 1 1962110601 1962-11-06    560 South Africa            7       1 https…       1
 2 1990080601 1990-08-06    645 Iraq                    9       0 https…       1
 3 1993102101 1996-08-30    516 Burundi                 6       1 http:…       1
 4 1994043001 1994-04-30    517 Rwanda                  6       1 http:…       1
 5 1996121701 1999-10-15    700 Afghanistan             9       0 https…       1
 6 1999021001 1999-02-10    531 Eritrea                 7       1 http:…       1
 7 1999021002 1999-02-10    530 Ethiopia                7       1 http:…       1
 8 2000031001 2000-03-10    439 Burkina Faso            3       0 http:…       1
 9 2000031002 2000-03-10    461 Togo                    1       1 http:…       1
10 2000031003 2000-03-10    437 Ivory Coast             1       1 http:…       1
# ℹ 23 more rows
…
cases

# A tibble: 83 × 11
     caseid caseid_name date       target target_name finaloutcome success link 
      <dbl> <chr>       <IDate>     <dbl> <chr>              <dbl>   <dbl> <chr>
 1  1.99e 9 <NA>        1990-08-06    645 Iraq                   9       0 http…
 2  1.99e11 UNSC: FRY … 1991-09-12    345 Yugoslavia            NA      NA http…
 3  1.99e10 UNSC: FRY … 1991-09-25    345 Yugoslavia            10       0 http…
 4  1.99e10 UNSC: Soma… 1992-01-23    520 Somalia                9       0 http…
 5  1.99e11 UNSC: Libe… 1992-11-19    450 Liberia               10       1 http…
 6  1.99e11 UNSC: Camb… 1992-12-01    811 Cambodia              10       1 http…
 7  1.99e10 UNSC: Hait… 1993-08-27     41 Haiti                 10       0 http…
 8  1.99e10 UNSC: Ango… 1993-09-15    540 Angola                10       1 http…
 9  1.99e10 UNSC: Hait… 1993-10-13     41 Haiti                 10       1 http…
10  1.99e 9 <NA>        1994-04-30    517 Rwanda                 6       1 http…
# ℹ 73 more rows
# ℹ 3 more variables: eusanct <dbl>, cmps <dbl>, row <int>
…
cases_fixed

# A tibble: 71 × 12
     caseid caseid_name date       target target_name finaloutcome success link 
      <dbl> <chr>       <IDate>     <dbl> <chr>              <dbl>   <dbl> <chr>
 1  1.99e 9 <NA>        1990-08-06    645 Iraq                   9       0 http…
 2  1.99e10 UNSC: FRY … 1991-09-25    345 Yugoslavia            10       0 http…
 3  1.99e10 UNSC: Soma… 1992-01-23    520 Somalia                9       0 http…
 4  1.99e11 UNSC: Libe… 1992-11-19    450 Liberia               10       1 http…
 5  1.99e11 UNSC: Camb… 1992-11-30    811 Cambodia              10       1 http…
 6  1.99e10 UNSC: Hait… 1993-08-27     41 Haiti                 10       0 http…
 7  1.99e10 UNSC: Ango… 1993-09-15    540 Angola                10       1 http…
 8  1.99e10 UNSC: Hait… 1993-10-13     41 Haiti                 10       1 http…
 9  1.99e 9 <NA>        1994-04-21    517 Rwanda                 6       1 http…
10  2.00e10 UNSC: Rwan… 1995-08-16    517 Rwanda                10       1 http…
# ℹ 61 more rows
# ℹ 4 more variables: eusanct <dbl>, cmps <dbl>, row <dbl>, res_no <dbl>
…
cases_votes <-
  left_join(cases_fixed, resolutions_votes, by = join_by("res_no", "date")) |>
  # Joining by unique res_no-date combination
  filter(chapter7 == TRUE) |> 
  select(
    year, caseid, caseid_name, res_no, date, chapter7, target, target_name, topic,
    china_yes, china_no, china_ab, france_yes, france_no, france_ab, us_yes, us_no,
    us_ab, uk_yes, uk_no, uk_ab, russia_yes, russia_no, russia_ab, vote_yes, vote_no,
    vote_abstention, vote_nonvote, finaloutcome, success, link, cmps, eusanct
  ) |>
  arrange(date)

cases_votes

# A tibble: 57 × 33
    year  caseid caseid_name res_no date       chapter7 target target_name topic
   <int>   <dbl> <chr>        <dbl> <IDate>    <lgl>     <dbl> <chr>       <chr>
 1  1990 1.99e 9 <NA>           661 1990-08-06 TRUE        645 Iraq        on s…
 2  1992 1.99e10 UNSC: Soma…    733 1992-01-23 TRUE        520 Somalia     call…
 3  1992 1.99e11 UNSC: Libe…    788 1992-11-19 TRUE        450 Liberia     on a…
 4  1993 1.99e10 UNSC: Hait…    861 1993-08-27 TRUE         41 Haiti       on s…
 5  1993 1.99e10 UNSC: Ango…    864 1993-09-15 TRUE        540 Angola      on e…
 6  1993 1.99e10 UNSC: Hait…    873 1993-10-13 TRUE         41 Haiti       on t…
 7  1995 2.00e10 UNSC: Rwan…   1011 1995-08-16 TRUE        517 Rwanda      on l…
 8  1997 2.00e10 UNSC: Ango…   1127 1997-08-28 TRUE        540 Angola      Meas…
 9  1997 2.00e11 UNSC: Sier…   1132 1997-10-08 TRUE        451 Sierra Leo… Oil …
10  1997 2.00e11 UNSC: Iraq…   1134 1997-10-23 TRUE        645 Iraq        Dema…
# ℹ 47 more rows
# ℹ 24 more variables: china_yes <dbl>, china_no <dbl>, china_ab <dbl>,
#   france_yes <dbl>, france_no <dbl>, france_ab <dbl>, us_yes <dbl>,
#   us_no <dbl>, us_ab <dbl>, uk_yes <dbl>, uk_no <dbl>, uk_ab <dbl>,
#   russia_yes <dbl>, russia_no <dbl>, russia_ab <dbl>, vote_yes <int>,
#   vote_no <int>, vote_abstention <int>, vote_nonvote <int>,
#   finaloutcome <dbl>, success <dbl>, link <chr>, cmps <dbl>, eusanct <dbl>

Deciding To Not Include TIES Dataset

Code

# Should we include data from TIES in addition to data from CMPS and EUSANCT?

cases_votes # Combines CMPS and EUSANCT with voting data

# A tibble: 57 × 33
    year  caseid caseid_name res_no date       chapter7 target target_name topic
   <int>   <dbl> <chr>        <dbl> <IDate>    <lgl>     <dbl> <chr>       <chr>
 1  1990 1.99e 9 <NA>           661 1990-08-06 TRUE        645 Iraq        on s…
 2  1992 1.99e10 UNSC: Soma…    733 1992-01-23 TRUE        520 Somalia     call…
 3  1992 1.99e11 UNSC: Libe…    788 1992-11-19 TRUE        450 Liberia     on a…
 4  1993 1.99e10 UNSC: Hait…    861 1993-08-27 TRUE         41 Haiti       on s…
 5  1993 1.99e10 UNSC: Ango…    864 1993-09-15 TRUE        540 Angola      on e…
 6  1993 1.99e10 UNSC: Hait…    873 1993-10-13 TRUE         41 Haiti       on t…
 7  1995 2.00e10 UNSC: Rwan…   1011 1995-08-16 TRUE        517 Rwanda      on l…
 8  1997 2.00e10 UNSC: Ango…   1127 1997-08-28 TRUE        540 Angola      Meas…
 9  1997 2.00e11 UNSC: Sier…   1132 1997-10-08 TRUE        451 Sierra Leo… Oil …
10  1997 2.00e11 UNSC: Iraq…   1134 1997-10-23 TRUE        645 Iraq        Dema…
# ℹ 47 more rows
# ℹ 24 more variables: china_yes <dbl>, china_no <dbl>, china_ab <dbl>,
#   france_yes <dbl>, france_no <dbl>, france_ab <dbl>, us_yes <dbl>,
#   us_no <dbl>, us_ab <dbl>, uk_yes <dbl>, uk_no <dbl>, uk_ab <dbl>,
#   russia_yes <dbl>, russia_no <dbl>, russia_ab <dbl>, vote_yes <int>,
#   vote_no <int>, vote_abstention <int>, vote_nonvote <int>,
#   finaloutcome <dbl>, success <dbl>, link <chr>, cmps <dbl>, eusanct <dbl>

Code

# 2 abstains from china included here, only 1 more when not filtering for resolutions invoking Chapter VII

resolutions_votes |> filter(china_ab == 1)

# A tibble: 175 × 27
    year date       res_no names     subregion topic subjects chapter7 china_yes
   <int> <IDate>     <int> <chr>     <chr>     <chr> <chr>    <lgl>        <dbl>
 1  1972 1972-02-04    309 Argentin… Eastern … on e… UN. SEC… FALSE            0
 2  1972 1972-06-15    315 China|Cy… Eastern … on e… UN Peac… FALSE            0
 3  1972 1972-08-01    319 China|Na… Eastern … appr… NAMIBIA… FALSE            0
 4  1972 1972-12-12    324 China|Cy… Eastern … on e… UN Peac… FALSE            0
 5  1973 1973-04-21    332 China|Gu… Eastern … on m… ARMED I… FALSE            0
 6  1973 1973-06-15    334 China|Cy… Eastern … on e… UN Peac… FALSE            0
 7  1973 1973-10-22    338 China     Eastern … on a… CEASEFI… FALSE            0
 8  1973 1973-10-23    339 China|Eg… Eastern … on a… UN Truc… FALSE            0
 9  1973 1973-10-25    340 China     Eastern … on a… UN Emer… FALSE            0
10  1973 1973-10-27    341 China     Eastern … on e… UN Emer… FALSE            0
# ℹ 165 more rows
# ℹ 18 more variables: china_no <dbl>, china_ab <dbl>, france_yes <dbl>,
#   france_no <dbl>, france_ab <dbl>, us_yes <dbl>, us_no <dbl>, us_ab <dbl>,
#   uk_yes <dbl>, uk_no <dbl>, uk_ab <dbl>, russia_yes <dbl>, russia_no <dbl>,
#   russia_ab <dbl>, vote_yes <int>, vote_no <int>, vote_abstention <int>,
#   vote_nonvote <int>
…
TIES <- 
  read_excel("TIESv4-1.xls") |> 
  as_tibble() |>
  filter(startyear %in% c(1972:2005)) |> 
  mutate(
    date = as.IDate(
      str_glue("{startyear}-{sprintf('%02d', startmonth)}-{sprintf('%02d', startday)}"))
  ) |> 
  drop_na(date) |> 
  select(date, primarysender, targetstate)

TIES

# A tibble: 1,011 × 3
   date       primarysender targetstate
   <IDate>            <dbl>       <dbl>
 1 1972-08-07           200         500
 2 1972-09-08            NA         552
 3 1972-09-22             2         365
 4 1973-05-29           620         666
 5 1973-01-09           552         551
 6 1973-07-05           551         552
 7 1973-08-24           740         732
 8 1973-09-13           380         155
 9 1973-10-02             2         155
10 1973-10-12             2         900
# ℹ 1,001 more rows
…
china_votes_vetoes

# A tibble: 62 × 6
    year date       topic                             china_yes china_ns success
   <int> <IDate>    <chr>                                 <dbl>    <dbl>   <dbl>
 1  1990 1990-08-06 on sanctions against Iraq                 1        0       0
 2  1992 1992-01-23 calling for a complete embargo o…         1        0       0
 3  1992 1992-11-19 on a general and complete embarg…         1        0       1
 4  1993 1993-08-27 on suspension of the sanctions a…         1        0       0
 5  1993 1993-09-15 on extension of the mandate of t…         1        0       1
 6  1993 1993-10-13 on termination of the suspension…         1        0       1
 7  1995 1995-08-16 on lifting of restrictions impos…         1        0       1
 8  1997 1997-08-28 Measures against the Uniao Nacio…         1        0       1
 9  1997 1997-10-08 Oil and arms embargo against the…         1        0       1
10  1997 1997-10-23 Demand that Iraq allow unconditi…         0        1       1
# ℹ 52 more rows
…
Code

# Top 5 countries sanctioned: Iraq, Sudan, Côte d'Ivoire, Somalia, Libya

top_countries <- sanctions_votes |>
  separate_rows(names, sep = "\\|") |>
  filter(names != "") |>
  mutate(names = str_trim(names)) |>
  count(names, sort = TRUE) |>
  slice_max(n, n = 50)

top_countries

# A tibble: 51 × 2
   names                                     n
   <chr>                                 <int>
 1 Iraq                                     67
 2 Sudan                                    47
 3 Côte d'Ivoire                            38
 4 Somalia                                  37
 5 Libya                                    35
 6 Congo                                    34
 7 Liberia                                  34
 8 Congo, The Democratic Republic of the    29
 9 Angola                                   21
10 Kuwait                                   20
# ℹ 41 more rows
…
# All cases with either a vote or abstain by China

china_vv_full <- 
  sanctions_votes |>
  filter(china_yes == 1 | china_no == 1 | china_ab == 1) |> 
  mutate(
    china_ns = if_else(china_no == 1 | china_ab == 1, 1, 0),
    china_yes = replace_na(china_yes, 0)
  ) |> 
  select(year, date, res_no, draft_no, topic, subjects, china_yes, china_ns)

china_vv_full

# A tibble: 383 × 8
    year date       res_no draft_no topic            subjects china_yes china_ns
   <int> <IDate>     <int> <chr>    <chr>            <chr>        <dbl>    <dbl>
 1  1972 1972-02-28    314 <NA>     urging all Stat… UN. SEC…         1        0
 2  1972 1972-08-25     NA S/10771  Admission of ne… <NA>             0        1
 3  1976 1976-04-06    388 <NA>     on the expansio… Charter…         1        0
 4  1977 1977-05-27    409 <NA>     on prohibition … UN. Sec…         1        0
 5  1979 1979-12-21    460 <NA>     on the terminat… UN. SEC…         1        0
 6  1985 1985-06-19    566 <NA>     condemning Sout… SWAPO|C…         1        0
 7  1990 1990-08-06    661 <NA>     on sanctions ag… UN. SEC…         1        0
 8  1990 1990-08-25    665 <NA>     on implementati… UN. Mil…         1        0
 9  1990 1990-09-13    666 <NA>     on the situatio… Interna…         1        0
10  1990 1990-09-25    670 <NA>     on air embargo … Geneva …         1        0
# ℹ 373 more rows
…
